<?xml version="1.0" encoding="UTF-8"?>
<!DOCTYPE X3D PUBLIC "ISO//Web3D//DTD X3D 3.0//EN" "http://www.web3d.org/specifications/x3d-3.0.dtd">
<X3D version="3.0" profile="Immersive" xmlns:xsd="http://www.w3.org/2001/XMLSchema-instance" xsd:noNamespaceSchemaLocation="http://www.web3d.org/specifications/x3d-3.0.xsd">
	<head>
		<meta name='copyright' content='Copyright (c) AnyLogic North America 2013'/>
	</head>
	<Scene>
		<NavigationInfo headlight="false"
		                visibilityLimit="0.0"
		                type='"EXAMINE", "ANY"'
		                avatarSize="0.25, 1.75, 0.75"
		                />
		<Background DEF="WO_World"
		            groundColor="0.051 0.051 0.051"
		            skyColor="0.051 0.051 0.051"
		            />
		<Transform 
		           translation="0.90000004 -0.90000004 0"
		           scale="0.3 0.3 0.3"
		           rotation="0.000000 0.707107 0.707107 3.141593"
		           >
			<Transform DEF="group_0_005_TRANSFORM"
			           translation="4.251968 -0.000000 0.000000"
			           scale="1.000000 1.000000 1.000000"
			           rotation="-0.000000 0.707107 0.707107 3.141593"
			           >
			</Transform>
			<Transform DEF="group_0_004_TRANSFORM"
			           translation="4.251968 -0.000000 0.000000"
			           scale="1.000000 1.000000 1.000000"
			           rotation="-0.000000 0.707107 0.707107 3.141593"
			           >
			</Transform>
			<Transform DEF="group_0_003_TRANSFORM"
			           translation="4.251968 -0.000000 0.000000"
			           scale="1.000000 1.000000 1.000000"
			           rotation="-0.000000 0.707107 0.707107 3.141593"
			           >
				<Transform DEF="group_0_003_ifs_TRANSFORM"
				           translation="0.000000 -0.000000 0.000000"
				           scale="1.000000 1.000000 1.000000"
				           rotation="1.000000 0.000000 0.000000 0.000000"
				           >
					<Group DEF="group_ME_ID27">
						<Shape>
							<Appearance>
								<Material DEF="MA_material_4"
								          diffuseColor="0.255 0.337 0.322"
								          specularColor="0.401 0.401 0.401"
								          emissiveColor="0.000 0.000 0.000"
								          ambientIntensity="0.333"
								          shininess="0.098"
								          transparency="0.0"
								          />
							</Appearance>
							<IndexedFaceSet solid="true"
							                creaseAngle="0.5236"
							                coordIndex="0 1 2 -1 1 0 3 -1 4 2 5 -1 4 0 2 -1 3 6 1 -1 6 3 7 -1 8 5 9 -1 5 8 4 -1 7 10 6 -1 10 7 11 -1 11 12 10 -1 12 11 13 -1 14 12 13 -1 12 14 15 -1 "
							                >
								<Coordinate DEF="coords_ME_ID27"
								            point="2.676229 0.072441 6.975100 2.125984 0.000000 1.929891 2.676229 0.072441 1.929891 2.125984 0.000000 6.975100 3.188977 0.284828 6.975100 3.188977 0.284828 1.929891 1.575739 0.072441 1.929891 1.575739 0.072441 6.975100 3.627818 0.621563 6.975100 3.627818 0.621563 1.929891 1.062992 0.284828 1.929891 1.062992 0.284828 6.975100 0.622686 0.622686 1.929891 0.622686 0.622686 6.975100 0.555507 0.710236 6.975100 0.555507 0.710236 1.929891 "
								            />
							</IndexedFaceSet>
						</Shape>
					</Group>
				</Transform>
			</Transform>
			<Transform DEF="group_0_002_TRANSFORM"
			           translation="4.251968 -0.000000 0.000000"
			           scale="1.000000 1.000000 1.000000"
			           rotation="-0.000000 0.707107 0.707107 3.141593"
			           >
				<Transform DEF="group_0_002_ifs_TRANSFORM"
				           translation="0.000000 -0.000000 0.000000"
				           scale="1.000000 1.000000 1.000000"
				           rotation="1.000000 0.000000 0.000000 0.000000"
				           >
					<Group DEF="group_ME_ID19">
						<Shape>
							<Appearance>
								<Material DEF="MA__96_96_96"
								          diffuseColor="0.376 0.376 0.376"
								          specularColor="0.401 0.401 0.401"
								          emissiveColor="0.000 0.000 0.000"
								          ambientIntensity="0.333"
								          shininess="0.098"
								          transparency="0.0"
								          />
							</Appearance>
							<IndexedFaceSet solid="true"
							                creaseAngle="0.5236"
							                coordIndex="0 1 2 -1 1 0 3 -1 4 5 6 -1 5 4 7 -1 5 7 8 -1 8 7 9 -1 9 7 10 -1 10 7 11 -1 10 11 12 -1 12 11 13 -1 12 13 14 -1 14 13 15 -1 14 15 16 -1 16 15 17 -1 16 17 18 -1 18 17 19 -1 19 17 20 -1 19 20 21 -1 21 20 22 -1 21 22 23 -1 23 22 24 -1 23 24 25 -1 25 24 26 -1 25 26 27 -1 27 26 28 -1 27 28 29 -1 8 30 5 -1 30 8 31 -1 30 31 32 -1 30 32 33 -1 33 32 34 -1 33 34 35 -1 35 34 36 -1 35 36 37 -1 37 36 38 -1 37 38 39 -1 39 38 40 -1 39 40 41 -1 39 41 42 -1 42 41 43 -1 42 43 44 -1 44 43 45 -1 44 45 46 -1 46 45 47 -1 46 47 48 -1 48 47 49 -1 48 49 50 -1 50 49 29 -1 50 29 28 -1 50 28 51 -1 52 2 53 -1 52 0 2 -1 54 55 56 -1 55 54 57 -1 55 57 58 -1 58 57 59 -1 58 59 60 -1 60 59 61 -1 60 61 62 -1 62 61 63 -1 62 63 64 -1 64 63 65 -1 64 65 66 -1 66 65 67 -1 66 67 68 -1 68 67 69 -1 68 69 70 -1 70 69 71 -1 70 71 72 -1 72 71 73 -1 72 73 74 -1 74 73 75 -1 74 75 76 -1 76 75 77 -1 3 78 1 -1 78 3 79 -1 80 81 82 -1 81 80 83 -1 83 84 81 -1 84 83 85 -1 86 84 85 -1 84 86 87 -1 88 87 86 -1 87 88 89 -1 90 89 88 -1 89 90 91 -1 92 91 90 -1 91 92 93 -1 94 93 92 -1 93 94 95 -1 96 95 94 -1 95 96 97 -1 96 53 97 -1 53 96 52 -1 79 98 78 -1 98 79 99 -1 99 100 98 -1 100 99 101 -1 100 102 103 -1 102 100 101 -1 103 104 105 -1 104 103 102 -1 105 106 107 -1 106 105 104 -1 107 108 109 -1 108 107 106 -1 109 110 111 -1 110 109 108 -1 111 112 113 -1 112 111 110 -1 112 114 113 -1 114 112 115 -1 115 116 114 -1 116 115 117 -1 117 118 116 -1 118 117 119 -1 119 82 118 -1 82 119 80 -1 "
							                >
								<Coordinate DEF="coords_ME_ID19"
								            point="1.924228 2.878950 15.236220 2.125984 2.905512 14.881889 1.924228 2.878950 14.881889 2.125984 2.905512 15.236220 1.373019 2.327741 14.881889 1.373019 1.924228 14.881889 1.346457 2.125984 14.881889 1.450894 2.515748 14.881889 1.417323 2.125984 14.881889 1.441470 2.309399 14.881889 1.512266 2.480315 14.881889 1.574775 2.677193 14.881889 1.624885 2.627084 14.881889 1.736220 2.801075 14.881889 1.771654 2.739703 14.881889 1.924228 2.878950 14.881889 1.942569 2.810498 14.881889 2.125984 2.905512 14.881889 2.125984 2.834646 14.881889 2.309399 2.810498 14.881889 2.327741 2.878950 14.881889 2.480315 2.739703 14.881889 2.515748 2.801075 14.881889 2.627084 2.627084 14.881889 2.677193 2.677193 14.881889 2.739703 2.480315 14.881889 2.801075 2.515748 14.881889 2.810498 2.309399 14.881889 2.878950 2.327741 14.881889 2.834646 2.125984 14.881889 1.450894 1.736220 14.881889 1.441470 1.942569 14.881889 1.512266 1.771654 14.881889 1.574775 1.574775 14.881889 1.624885 1.624885 14.881889 1.736220 1.450894 14.881889 1.771654 1.512266 14.881889 1.924228 1.373019 14.881889 1.942569 1.441470 14.881889 2.125984 1.346457 14.881889 2.125984 1.417323 14.881889 2.309399 1.441470 14.881889 2.327741 1.373019 14.881889 2.480315 1.512266 14.881889 2.515748 1.450894 14.881889 2.627084 1.624885 14.881889 2.677193 1.574775 14.881889 2.739703 1.771654 14.881889 2.801075 1.736220 14.881889 2.810498 1.942569 14.881889 2.878950 1.924228 14.881889 2.905512 2.125984 14.881889 1.736220 2.801075 15.236220 1.736220 2.801075 14.881889 1.373019 1.924228 15.236220 1.373019 2.327741 15.236220 1.346457 2.125984 15.236220 1.450894 1.736220 15.236220 1.450894 2.515748 15.236220 1.574775 1.574775 15.236220 1.574775 2.677193 15.236220 1.736220 1.450894 15.236220 1.736220 2.801075 15.236220 1.924228 1.373019 15.236220 1.924228 2.878950 15.236220 2.125984 1.346457 15.236220 2.125984 2.905512 15.236220 2.327741 1.373019 15.236220 2.327741 2.878950 15.236220 2.515748 1.450894 15.236220 2.515748 2.801075 15.236220 2.677193 1.574775 15.236220 2.677193 2.677193 15.236220 2.801075 1.736220 15.236220 2.801075 2.515748 15.236220 2.878950 1.924228 15.236220 2.878950 2.327741 15.236220 2.905512 2.125984 15.236220 2.327741 2.878950 14.881889 2.327741 2.878950 15.236220 1.924228 1.373019 15.236220 1.736220 1.450894 14.881889 1.924228 1.373019 14.881889 1.736220 1.450894 15.236220 1.574775 1.574775 14.881889 1.574775 1.574775 15.236220 1.450894 1.736220 15.236220 1.450894 1.736220 14.881889 1.373019 1.924228 15.236220 1.373019 1.924228 14.881889 1.346457 2.125984 15.236220 1.346457 2.125984 14.881889 1.373019 2.327741 15.236220 1.373019 2.327741 14.881889 1.450894 2.515748 15.236220 1.450894 2.515748 14.881889 1.574775 2.677193 15.236220 1.574775 2.677193 14.881889 2.515748 2.801075 14.881889 2.515748 2.801075 15.236220 2.677193 2.677193 14.881889 2.677193 2.677193 15.236220 2.801075 2.515748 15.236220 2.801075 2.515748 14.881889 2.878950 2.327741 15.236220 2.878950 2.327741 14.881889 2.905512 2.125984 15.236220 2.905512 2.125984 14.881889 2.878950 1.924228 15.236220 2.878950 1.924228 14.881889 2.801075 1.736220 15.236220 2.801075 1.736220 14.881889 2.677193 1.574775 15.236220 2.677193 1.574775 14.881889 2.515748 1.450894 14.881889 2.515748 1.450894 15.236220 2.327741 1.373019 14.881889 2.327741 1.373019 15.236220 2.125984 1.346457 14.881889 2.125984 1.346457 15.236220 "
								            />
							</IndexedFaceSet>
						</Shape>
					</Group>
				</Transform>
			</Transform>
			<Transform DEF="group_0_001_TRANSFORM"
			           translation="4.251968 -0.000000 0.000000"
			           scale="1.000000 1.000000 1.000000"
			           rotation="-0.000000 0.707107 0.707107 3.141593"
			           >
				<Transform DEF="group_0_001_ifs_TRANSFORM"
				           translation="0.000000 -0.000000 0.000000"
				           scale="1.000000 1.000000 1.000000"
				           rotation="1.000000 0.000000 0.000000 0.000000"
				           >
					<Group DEF="group_ME_ID11">
						<Shape>
							<Appearance>
								<Material DEF="MA_material_5"
								          diffuseColor="0.161 0.137 0.063"
								          specularColor="0.401 0.401 0.401"
								          emissiveColor="0.000 0.000 0.000"
								          ambientIntensity="0.333"
								          shininess="0.098"
								          transparency="0.0"
								          />
							</Appearance>
							<IndexedFaceSet solid="true"
							                creaseAngle="0.5236"
							                coordIndex="0 1 2 -1 1 0 3 -1 2 4 5 -1 4 2 1 -1 6 7 8 -1 7 6 9 -1 7 9 10 -1 10 9 11 -1 11 9 12 -1 11 12 13 -1 11 13 14 -1 14 13 15 -1 14 15 16 -1 16 15 17 -1 16 17 18 -1 18 17 19 -1 18 19 20 -1 20 19 21 -1 20 21 22 -1 22 21 23 -1 22 23 24 -1 24 23 25 -1 24 25 26 -1 26 25 27 -1 26 27 28 -1 28 27 29 -1 30 0 31 -1 0 30 3 -1 5 32 33 -1 32 5 4 -1 33 34 35 -1 34 33 32 -1 35 36 37 -1 36 35 34 -1 37 38 39 -1 38 37 36 -1 39 40 41 -1 40 39 38 -1 40 38 42 -1 42 38 43 -1 43 38 44 -1 45 41 40 -1 45 46 41 -1 46 45 47 -1 47 48 46 -1 48 47 49 -1 49 50 48 -1 50 49 51 -1 51 52 50 -1 52 51 53 -1 53 54 52 -1 54 53 55 -1 56 57 58 -1 57 56 59 -1 59 56 60 -1 60 54 55 -1 54 60 61 -1 61 60 56 -1 62 61 56 -1 61 62 63 -1 64 63 62 -1 63 64 65 -1 66 65 64 -1 65 66 67 -1 68 67 66 -1 67 68 69 -1 70 69 68 -1 69 70 71 -1 70 72 71 -1 72 70 73 -1 73 74 72 -1 74 73 75 -1 75 76 74 -1 76 75 77 -1 77 78 76 -1 78 77 79 -1 79 31 78 -1 31 79 30 -1 44 80 43 -1 80 44 81 -1 82 57 83 -1 57 82 58 -1 81 84 80 -1 84 81 85 -1 86 83 87 -1 83 86 82 -1 85 87 84 -1 87 85 86 -1 "
							                >
								<Coordinate DEF="coords_ME_ID11"
								            point="3.629282 3.629282 0.000000 3.967140 3.188977 8.459093 3.967140 3.188977 0.000000 3.629282 3.629282 8.459093 4.179527 2.676229 8.459093 4.179527 2.676229 0.000000 0.072441 2.676229 0.000000 0.072441 1.575739 0.000000 0.000000 2.125984 0.000000 0.284828 3.188977 0.000000 0.284828 1.062992 0.000000 0.622686 0.622686 0.000000 0.622686 3.629282 0.000000 1.062992 3.967140 0.000000 1.062992 0.284828 0.000000 1.575739 4.179527 0.000000 1.575739 0.072441 0.000000 2.125984 4.251968 0.000000 2.125984 0.000000 0.000000 2.676229 4.179527 0.000000 2.676229 0.072441 0.000000 3.188977 3.967140 0.000000 3.188977 0.284828 0.000000 3.629282 3.629282 0.000000 3.629282 0.622686 0.000000 3.967140 3.188977 0.000000 3.967140 1.062992 0.000000 4.179527 2.676229 0.000000 4.179527 1.575739 0.000000 4.251968 2.125984 0.000000 3.188977 3.967140 8.459093 3.188977 3.967140 0.000000 4.251968 2.125984 8.459093 4.251968 2.125984 0.000000 4.179527 1.575739 8.459093 4.179527 1.575739 0.000000 3.967140 1.062992 8.459093 3.967140 1.062992 0.000000 3.629282 0.622686 8.459093 3.629282 0.622686 0.000000 3.627818 0.621563 1.929891 3.188977 0.284828 0.000000 3.627818 0.621563 6.975100 3.188977 0.284828 6.975100 3.188977 0.284828 8.459093 3.188977 0.284828 1.929891 2.676229 0.072441 0.000000 2.676229 0.072441 1.929891 2.125984 0.000000 0.000000 2.125984 0.000000 1.929891 1.575739 0.072441 0.000000 1.575739 0.072441 1.929891 1.062992 0.284828 0.000000 1.062992 0.284828 1.929891 0.622686 0.622686 0.000000 0.622686 0.622686 1.929891 0.284828 1.062992 8.459093 0.622686 0.622686 6.975100 0.622686 0.622686 8.459093 0.555507 0.710236 6.975100 0.555507 0.710236 1.929891 0.284828 1.062992 0.000000 0.072441 1.575739 8.459093 0.072441 1.575739 0.000000 0.000000 2.125984 8.459093 0.000000 2.125984 0.000000 0.072441 2.676229 8.459093 0.072441 2.676229 0.000000 0.284828 3.188977 8.459093 0.284828 3.188977 0.000000 0.622686 3.629282 8.459093 0.622686 3.629282 0.000000 1.062992 3.967140 0.000000 1.062992 3.967140 8.459093 1.575739 4.179527 0.000000 1.575739 4.179527 8.459093 2.125984 4.251968 0.000000 2.125984 4.251968 8.459093 2.676229 4.179527 0.000000 2.676229 4.179527 8.459093 2.676229 0.072441 6.975100 2.676229 0.072441 8.459093 1.062992 0.284828 8.459093 1.062992 0.284828 6.975100 2.125984 0.000000 6.975100 2.125984 0.000000 8.459093 1.575739 0.072441 8.459093 1.575739 0.072441 6.975100 "
								            />
							</IndexedFaceSet>
						</Shape>
					</Group>
				</Transform>
			</Transform>
			<Transform DEF="group_0_TRANSFORM"
			           translation="4.251968 -0.000000 0.000000"
			           scale="1.000000 1.000000 1.000000"
			           rotation="-0.000000 0.707107 0.707107 3.141593"
			           >
				<Transform DEF="group_0_ifs_TRANSFORM"
				           translation="0.000000 -0.000000 0.000000"
				           scale="1.000000 1.000000 1.000000"
				           rotation="1.000000 0.000000 0.000000 0.000000"
				           >
					<Group DEF="group_ME_ID3">
						<Shape>
							<Appearance>
								<Material DEF="MA_material_1"
								          diffuseColor="0.161 0.345 0.063"
								          specularColor="0.401 0.401 0.401"
								          emissiveColor="0.000 0.000 0.000"
								          ambientIntensity="0.333"
								          shininess="0.098"
								          transparency="0.0"
								          />
							</Appearance>
							<IndexedFaceSet solid="true"
							                creaseAngle="0.5236"
							                coordIndex="0 1 2 -1 1 0 3 -1 2 4 5 -1 4 2 1 -1 3 0 6 -1 3 6 7 -1 3 8 1 -1 8 3 9 -1 4 10 5 -1 10 4 11 -1 1 12 4 -1 12 1 8 -1 6 13 7 -1 13 6 14 -1 7 9 3 -1 9 7 15 -1 9 16 8 -1 16 9 17 -1 11 18 10 -1 18 11 19 -1 12 11 4 -1 11 12 20 -1 8 21 12 -1 21 8 16 -1 14 22 13 -1 22 14 23 -1 13 15 7 -1 15 13 24 -1 15 17 9 -1 17 15 25 -1 17 26 16 -1 26 17 27 -1 19 28 18 -1 28 19 29 -1 20 19 11 -1 19 20 30 -1 21 20 12 -1 20 21 31 -1 16 32 21 -1 32 16 26 -1 23 33 22 -1 33 23 34 -1 13 35 24 -1 35 13 22 -1 15 36 25 -1 36 15 24 -1 25 27 17 -1 27 25 37 -1 27 38 26 -1 38 27 39 -1 29 40 28 -1 40 29 41 -1 30 29 19 -1 29 30 42 -1 31 30 20 -1 30 31 43 -1 32 31 21 -1 31 32 44 -1 26 45 32 -1 45 26 38 -1 46 34 47 -1 34 46 33 -1 22 48 35 -1 48 22 33 -1 24 49 36 -1 49 24 35 -1 36 37 25 -1 37 36 50 -1 37 39 27 -1 39 37 51 -1 39 52 38 -1 52 39 53 -1 41 54 40 -1 54 41 55 -1 42 41 29 -1 41 42 56 -1 43 42 30 -1 42 43 57 -1 44 43 31 -1 43 44 58 -1 45 44 32 -1 44 45 59 -1 38 60 45 -1 60 38 52 -1 61 47 62 -1 47 61 46 -1 63 33 46 -1 33 63 48 -1 35 64 49 -1 64 35 48 -1 36 65 50 -1 65 36 49 -1 50 51 37 -1 51 50 66 -1 51 53 39 -1 53 51 67 -1 53 68 52 -1 68 53 69 -1 55 70 54 -1 70 55 71 -1 56 55 41 -1 55 56 72 -1 57 56 42 -1 56 57 73 -1 58 57 43 -1 57 58 74 -1 59 58 44 -1 58 59 75 -1 60 59 45 -1 59 60 76 -1 52 77 60 -1 77 52 68 -1 78 62 79 -1 62 78 61 -1 80 46 61 -1 46 80 63 -1 81 48 63 -1 48 81 64 -1 49 82 65 -1 82 49 64 -1 50 83 66 -1 83 50 65 -1 66 67 51 -1 67 66 84 -1 67 69 53 -1 69 67 85 -1 69 86 68 -1 86 69 87 -1 71 88 70 -1 88 71 89 -1 72 71 55 -1 71 72 90 -1 73 72 56 -1 72 73 91 -1 74 73 57 -1 73 74 92 -1 75 74 58 -1 74 75 93 -1 76 75 59 -1 75 76 94 -1 77 76 60 -1 76 77 95 -1 77 86 96 -1 86 77 68 -1 97 79 98 -1 79 97 78 -1 99 61 78 -1 61 99 80 -1 100 63 80 -1 63 100 81 -1 101 64 81 -1 64 101 82 -1 65 102 83 -1 102 65 82 -1 66 103 84 -1 103 66 83 -1 84 85 67 -1 85 84 104 -1 85 87 69 -1 87 85 105 -1 86 106 107 -1 106 86 87 -1 89 108 88 -1 108 89 109 -1 90 89 71 -1 89 90 110 -1 91 90 72 -1 90 91 111 -1 92 91 73 -1 91 92 112 -1 93 92 74 -1 92 93 113 -1 94 93 75 -1 93 94 114 -1 95 94 76 -1 94 95 115 -1 95 96 116 -1 96 95 77 -1 96 107 117 -1 107 96 86 -1 118 98 119 -1 98 118 97 -1 120 78 97 -1 78 120 99 -1 121 80 99 -1 80 121 100 -1 122 81 100 -1 81 122 101 -1 123 82 101 -1 82 123 102 -1 83 124 103 -1 124 83 102 -1 84 125 104 -1 125 84 103 -1 85 126 105 -1 126 85 104 -1 105 106 87 -1 106 105 127 -1 107 128 129 -1 128 107 106 -1 109 130 108 -1 130 109 131 -1 110 109 89 -1 109 110 132 -1 111 110 90 -1 110 111 133 -1 112 111 91 -1 111 112 134 -1 113 112 92 -1 112 113 135 -1 114 113 93 -1 113 114 136 -1 115 114 94 -1 114 115 137 -1 116 115 95 -1 115 116 138 -1 116 117 139 -1 117 116 96 -1 117 129 140 -1 129 117 107 -1 141 119 142 -1 119 141 118 -1 143 97 118 -1 97 143 120 -1 144 99 120 -1 99 144 121 -1 145 100 121 -1 100 145 122 -1 146 101 122 -1 101 146 123 -1 147 102 123 -1 102 147 124 -1 103 148 125 -1 148 103 124 -1 104 149 126 -1 149 104 125 -1 126 127 105 -1 127 126 150 -1 106 151 128 -1 151 106 127 -1 129 152 153 -1 152 129 128 -1 131 154 130 -1 154 131 155 -1 132 131 109 -1 131 132 156 -1 133 132 110 -1 132 133 157 -1 134 133 111 -1 133 134 158 -1 135 134 112 -1 134 135 159 -1 136 135 113 -1 135 136 160 -1 137 136 114 -1 136 137 161 -1 138 137 115 -1 137 138 162 -1 138 139 163 -1 139 138 116 -1 139 140 164 -1 140 139 117 -1 140 153 165 -1 153 140 129 -1 141 166 167 -1 166 141 142 -1 168 118 141 -1 118 168 143 -1 169 120 143 -1 120 169 144 -1 170 121 144 -1 121 170 145 -1 171 122 145 -1 122 171 146 -1 172 123 146 -1 123 172 147 -1 173 124 147 -1 124 173 148 -1 149 148 174 -1 148 149 125 -1 150 149 175 -1 149 150 126 -1 151 150 176 -1 150 151 127 -1 128 177 152 -1 177 128 151 -1 153 178 179 -1 178 153 152 -1 167 154 155 -1 154 167 166 -1 180 131 156 -1 131 180 155 -1 157 156 132 -1 156 157 181 -1 158 157 133 -1 157 158 182 -1 159 158 134 -1 158 159 183 -1 160 159 135 -1 159 160 184 -1 161 160 136 -1 160 161 185 -1 162 161 137 -1 161 162 186 -1 163 162 138 -1 162 163 187 -1 163 164 188 -1 164 163 139 -1 164 165 189 -1 165 164 140 -1 165 179 190 -1 179 165 153 -1 168 167 191 -1 167 168 141 -1 192 143 168 -1 143 192 169 -1 193 144 169 -1 144 193 170 -1 194 145 170 -1 145 194 171 -1 195 146 171 -1 146 195 172 -1 196 147 172 -1 147 196 173 -1 174 173 197 -1 173 174 148 -1 175 174 198 -1 174 175 149 -1 176 175 199 -1 175 176 150 -1 177 176 200 -1 176 177 151 -1 152 201 178 -1 201 152 177 -1 202 203 204 -1 203 202 205 -1 191 155 180 -1 155 191 167 -1 206 156 181 -1 156 206 180 -1 182 181 157 -1 181 182 207 -1 183 182 158 -1 182 183 208 -1 184 183 159 -1 183 184 209 -1 185 184 160 -1 184 185 210 -1 186 185 161 -1 185 186 211 -1 187 186 162 -1 186 187 212 -1 163 213 187 -1 213 163 188 -1 188 189 214 -1 189 188 164 -1 189 190 215 -1 190 189 165 -1 204 216 217 -1 216 204 203 -1 192 191 218 -1 191 192 168 -1 219 169 192 -1 169 219 193 -1 220 170 193 -1 170 220 194 -1 221 171 194 -1 171 221 195 -1 222 172 195 -1 172 222 196 -1 223 173 196 -1 173 223 197 -1 198 197 224 -1 197 198 174 -1 199 198 225 -1 198 199 175 -1 200 199 226 -1 199 200 176 -1 201 200 227 -1 200 201 177 -1 228 205 202 -1 205 228 229 -1 218 180 206 -1 180 218 191 -1 230 181 207 -1 181 230 206 -1 208 207 182 -1 207 208 231 -1 209 208 183 -1 208 209 232 -1 210 209 184 -1 209 210 233 -1 185 234 210 -1 234 185 211 -1 186 235 211 -1 235 186 212 -1 187 236 212 -1 236 187 213 -1 188 237 213 -1 237 188 214 -1 214 215 238 -1 215 214 189 -1 216 239 217 -1 239 216 240 -1 219 218 241 -1 218 219 192 -1 242 193 219 -1 193 242 220 -1 243 194 220 -1 194 243 221 -1 244 195 221 -1 195 244 222 -1 245 196 222 -1 196 245 223 -1 224 223 246 -1 223 224 197 -1 225 224 247 -1 224 225 198 -1 226 225 248 -1 225 226 199 -1 227 226 249 -1 226 227 200 -1 250 229 228 -1 229 250 251 -1 241 206 230 -1 206 241 218 -1 252 207 231 -1 207 252 230 -1 232 231 208 -1 231 232 253 -1 233 232 209 -1 232 233 254 -1 210 255 233 -1 255 210 234 -1 211 256 234 -1 256 211 235 -1 212 257 235 -1 257 212 236 -1 213 258 236 -1 258 213 237 -1 214 259 237 -1 259 214 238 -1 240 260 239 -1 260 240 261 -1 242 241 262 -1 241 242 219 -1 263 220 242 -1 220 263 243 -1 264 221 243 -1 221 264 244 -1 265 222 244 -1 222 265 245 -1 266 223 245 -1 223 266 246 -1 247 246 267 -1 246 247 224 -1 248 247 268 -1 247 248 225 -1 249 248 269 -1 248 249 226 -1 270 251 250 -1 251 270 271 -1 262 230 252 -1 230 262 241 -1 253 252 231 -1 252 253 272 -1 254 253 232 -1 253 254 273 -1 255 254 233 -1 254 255 274 -1 234 275 255 -1 275 234 256 -1 235 276 256 -1 276 235 257 -1 236 277 257 -1 277 236 258 -1 237 278 258 -1 278 237 259 -1 261 279 260 -1 279 261 280 -1 263 262 281 -1 262 263 242 -1 282 243 263 -1 243 282 264 -1 283 244 264 -1 244 283 265 -1 284 245 265 -1 245 284 266 -1 267 266 285 -1 266 267 246 -1 268 267 286 -1 267 268 247 -1 269 268 287 -1 268 269 248 -1 288 271 270 -1 271 288 289 -1 281 252 272 -1 252 281 262 -1 290 253 273 -1 253 290 272 -1 274 273 254 -1 273 274 291 -1 255 292 274 -1 292 255 275 -1 256 293 275 -1 293 256 276 -1 257 294 276 -1 294 257 277 -1 258 295 277 -1 295 258 278 -1 280 296 279 -1 296 280 297 -1 282 281 298 -1 281 282 263 -1 299 264 282 -1 264 299 283 -1 300 265 283 -1 265 300 284 -1 301 266 284 -1 266 301 285 -1 286 285 302 -1 285 286 267 -1 287 286 303 -1 286 287 268 -1 304 288 305 -1 288 304 289 -1 298 272 290 -1 272 298 281 -1 291 290 273 -1 290 291 306 -1 292 291 274 -1 291 292 307 -1 275 308 292 -1 308 275 293 -1 276 309 293 -1 309 276 294 -1 277 310 294 -1 310 277 295 -1 297 311 296 -1 311 297 312 -1 313 282 298 -1 282 313 299 -1 314 283 299 -1 283 314 300 -1 315 284 300 -1 284 315 301 -1 316 285 301 -1 285 316 302 -1 303 302 317 -1 302 303 286 -1 318 305 319 -1 305 318 304 -1 313 290 306 -1 290 313 298 -1 320 291 307 -1 291 320 306 -1 292 321 307 -1 321 292 308 -1 293 322 308 -1 322 293 309 -1 294 323 309 -1 323 294 310 -1 312 324 311 -1 324 312 325 -1 326 299 313 -1 299 326 314 -1 327 300 314 -1 300 327 315 -1 328 301 315 -1 301 328 316 -1 329 302 316 -1 302 329 317 -1 330 319 331 -1 319 330 318 -1 320 313 306 -1 313 320 326 -1 321 320 307 -1 320 321 332 -1 308 333 321 -1 333 308 322 -1 309 334 322 -1 334 309 323 -1 335 324 325 -1 324 335 336 -1 337 314 326 -1 314 337 327 -1 338 315 327 -1 315 338 328 -1 339 316 328 -1 316 339 329 -1 340 331 341 -1 331 340 330 -1 332 326 320 -1 326 332 337 -1 333 332 321 -1 332 333 342 -1 322 343 333 -1 343 322 334 -1 344 336 335 -1 336 344 345 -1 346 327 337 -1 327 346 338 -1 347 328 338 -1 328 347 339 -1 348 341 349 -1 341 348 340 -1 342 337 332 -1 337 342 346 -1 343 342 333 -1 342 343 350 -1 351 345 344 -1 345 351 352 -1 353 338 346 -1 338 353 347 -1 354 349 355 -1 349 354 348 -1 350 346 342 -1 346 350 353 -1 356 352 351 -1 352 356 357 -1 354 358 359 -1 358 354 355 -1 359 357 356 -1 357 359 358 -1 "
							                >
								<Coordinate DEF="coords_ME_ID3"
								            point="4.179527 1.575739 8.459093 3.931889 1.083345 8.678164 3.967140 1.062992 8.459093 4.140209 1.586274 8.678164 3.600499 0.651469 8.678164 3.629282 0.622686 8.459093 4.251968 2.125984 8.459093 4.211263 2.125984 8.678164 3.883125 1.111499 8.893752 4.085820 1.600848 8.893752 3.188977 0.284828 8.459093 3.168624 0.320080 8.678164 3.560683 0.691285 8.893752 4.140209 2.665694 8.678164 4.179527 2.676229 8.459093 4.154955 2.125984 8.893752 3.821099 1.147310 9.104749 4.016639 1.619385 9.104749 2.676229 0.072441 8.459093 2.665694 0.111759 8.678164 3.140470 0.368844 8.893752 3.510040 0.741929 9.104749 3.931889 3.168624 8.678164 3.967140 3.188977 8.459093 4.085820 2.651121 8.893752 4.083334 2.125984 9.104749 3.746131 1.190592 9.310066 3.933023 1.641790 9.310066 2.125984 0.000000 8.459093 2.125984 0.040705 8.678164 2.651121 0.166149 8.893752 3.104659 0.430870 9.104749 3.448828 0.803140 9.310066 3.600499 3.600499 8.678164 3.629282 3.629282 8.459093 3.883125 3.140470 8.893752 4.016639 2.632584 9.104749 3.996768 2.125984 9.310066 3.658607 1.241124 9.508650 3.835402 1.667947 9.508650 1.575739 0.072441 8.459093 1.586274 0.111759 8.678164 2.125984 0.097014 8.893752 2.632584 0.235330 9.104749 3.061377 0.505838 9.310066 3.377365 0.874603 9.508650 3.168624 3.931889 8.678164 3.188977 3.967140 8.459093 3.560683 3.560683 8.893752 3.821099 3.104659 9.104749 3.933023 2.610179 9.310066 3.895704 2.125984 9.508650 3.558977 1.298645 9.699474 3.724280 1.697722 9.699474 1.062992 0.284828 8.459093 1.083345 0.320080 8.678164 1.600848 0.166149 8.893752 2.125984 0.168635 9.104749 2.610179 0.318946 9.310066 3.010844 0.593362 9.508650 3.296018 0.955951 9.699474 2.665694 4.140209 8.678164 2.676229 4.179527 8.459093 3.140470 3.883125 8.893752 3.510040 3.510040 9.104749 3.746131 3.061377 9.310066 3.835402 2.584021 9.508650 3.780662 2.125984 9.699474 3.447754 1.362860 9.881560 3.600227 1.730962 9.881560 0.622686 0.622686 8.459093 0.651469 0.651469 8.678164 1.111499 0.368844 8.893752 1.619385 0.235330 9.104749 2.125984 0.255200 9.310066 2.584021 0.416566 9.508650 2.953323 0.692992 9.699474 3.205205 1.046764 9.881560 2.125984 4.211263 8.678164 2.125984 4.251968 8.459093 2.651121 4.085820 8.893752 3.104659 3.821099 9.104749 3.448828 3.448828 9.310066 3.658607 3.010844 9.508650 3.724280 2.554246 9.699474 3.652233 2.125984 9.881560 3.325511 1.433437 10.053968 3.463883 1.767495 10.053968 0.284828 1.062992 8.459093 0.320080 1.083345 8.678164 0.691285 0.691285 8.893752 1.147310 0.430870 9.104749 1.641790 0.318946 9.310066 2.125984 0.356264 9.508650 2.554246 0.527689 9.699474 2.889108 0.804214 9.881560 3.105394 1.146574 10.053968 1.586274 4.140209 8.678164 1.575739 4.179527 8.459093 2.125984 4.154955 8.893752 2.632584 4.016639 9.104749 3.061377 3.746131 9.310066 3.377365 3.377365 9.508650 3.558977 2.953323 9.699474 3.600227 2.521007 9.881560 3.511079 2.125984 10.053968 3.315949 1.807134 10.215812 3.192877 1.510013 10.215812 0.072441 1.575739 8.459093 0.111759 1.586274 8.678164 0.368844 1.111499 8.893752 0.741929 0.741929 9.104749 1.190592 0.505838 9.310066 1.667947 0.416566 9.508650 2.125984 0.471307 9.699474 2.521007 0.651741 9.881560 2.818532 0.926457 10.053968 2.997099 1.254870 10.215812 1.083345 3.931889 8.678164 1.062992 3.967140 8.459093 1.600848 4.085820 8.893752 2.125984 4.083334 9.104749 2.610179 3.933023 9.310066 3.010844 3.658607 9.508650 3.296018 3.296018 9.699474 3.447754 2.889109 9.881560 3.463883 2.484473 10.053968 3.357927 2.125984 10.215812 3.157187 1.849674 10.366258 3.050535 1.592194 10.366258 0.000000 2.125984 8.459093 0.040705 2.125984 8.678164 0.166149 1.600848 8.893752 0.430870 1.147310 9.104749 0.803140 0.803140 9.310066 1.241124 0.593362 9.508650 1.697722 0.527689 9.699474 2.125984 0.599736 9.881560 2.484473 0.788086 10.053968 2.741956 1.059091 10.215812 2.880877 1.371091 10.366258 0.651469 3.600499 8.678164 0.622686 3.629282 8.459093 1.111499 3.883125 8.893752 1.619385 4.016639 9.104749 2.125984 3.996768 9.310066 2.584021 3.835402 9.508650 2.953323 3.558977 9.699474 3.205205 3.205205 9.881560 3.325511 2.818532 10.053968 3.315949 2.444834 10.215812 3.193564 2.125984 10.366258 2.988414 1.894897 10.504532 2.899218 1.679558 10.504532 0.072441 2.676229 8.459093 0.111759 2.665694 8.678164 0.097014 2.125984 8.893752 0.235330 1.619385 9.104749 0.505838 1.190592 9.310066 0.874603 0.874603 9.508650 1.298645 0.692992 9.699474 1.730962 0.651741 9.881560 2.125984 0.740890 10.053968 2.444834 0.936020 10.215812 2.659774 1.201433 10.366258 2.757327 1.494642 10.504532 0.284828 3.188977 8.459093 0.320080 3.168624 8.678164 0.691285 3.560683 8.893752 1.147310 3.821099 9.104749 1.641790 3.933023 9.310066 2.125984 3.895704 9.508650 2.554246 3.724280 9.699474 2.889108 3.447754 9.881560 3.105394 3.105394 10.053968 3.192877 2.741956 10.215812 3.157187 2.402294 10.366258 3.018837 2.125984 10.504532 2.810498 1.942569 10.629921 2.739703 1.771654 10.629921 0.166149 2.651121 8.893752 0.168635 2.125984 9.104749 0.318946 1.641790 9.310066 0.593362 1.241124 9.508650 0.955951 0.955951 9.699474 1.362860 0.804214 9.881560 1.767495 0.788086 10.053968 2.125984 0.894042 10.215812 2.402294 1.094782 10.366258 2.572411 1.352751 10.504532 2.627084 1.624885 10.629921 0.368844 3.140470 8.893752 0.741929 3.510040 9.104749 1.190592 3.746131 9.310066 1.667947 3.835402 9.508650 2.125984 3.780662 9.699474 2.521007 3.600227 9.881560 2.818532 3.325511 10.053968 2.997099 2.997099 10.215812 3.050535 2.659774 10.366258 2.988414 2.357072 10.504532 2.834646 2.125984 10.629921 2.810498 1.942569 10.629921 2.739703 1.771654 14.881889 2.739703 1.771654 10.629921 2.810498 1.942569 14.881889 0.235330 2.632584 9.104749 0.255200 2.125984 9.310066 0.416566 1.667947 9.508650 0.692992 1.298645 9.699474 1.046764 1.046764 9.881560 1.433437 0.926457 10.053968 1.807134 0.936020 10.215812 2.125984 1.058405 10.366258 2.357072 1.263555 10.504532 2.480315 1.512266 10.629921 2.627084 1.624885 14.881889 2.627084 1.624885 10.629921 0.430870 3.104659 9.104749 0.803140 3.448828 9.310066 1.241124 3.658607 9.508650 1.697722 3.724280 9.699474 2.125984 3.652233 9.881560 2.484473 3.463883 10.053968 2.741956 3.192877 10.215812 2.880877 2.880877 10.366258 2.899218 2.572411 10.504532 2.810498 2.309399 10.629921 2.834646 2.125984 10.629921 2.834646 2.125984 14.881889 0.318946 2.610179 9.310066 0.356264 2.125984 9.508650 0.527689 1.697722 9.699474 0.804214 1.362860 9.881560 1.146574 1.146574 10.053968 1.510013 1.059091 10.215812 1.849674 1.094782 10.366258 2.125984 1.233131 10.504532 2.309399 1.441470 10.629921 2.480315 1.512266 10.629921 2.480315 1.512266 14.881889 0.505838 3.061377 9.310066 0.874603 3.377365 9.508650 1.298645 3.558977 9.699474 1.730962 3.600227 9.881560 2.125984 3.511079 10.053968 2.444834 3.315949 10.215812 2.659774 3.050535 10.366258 2.757327 2.757327 10.504532 2.739703 2.480315 10.629921 2.810498 2.309399 10.629921 2.810498 2.309399 14.881889 0.416566 2.584021 9.508650 0.471307 2.125984 9.699474 0.651741 1.730962 9.881560 0.926457 1.433437 10.053968 1.254870 1.254870 10.215812 1.592194 1.201433 10.366258 1.894897 1.263555 10.504532 2.125984 1.417323 10.629921 2.309399 1.441470 10.629921 2.309399 1.441470 14.881889 0.593362 3.010844 9.508650 0.955951 3.296018 9.699474 1.362860 3.447754 9.881560 1.767495 3.463883 10.053968 2.125984 3.357927 10.215812 2.402294 3.157187 10.366258 2.572411 2.899218 10.504532 2.627084 2.627084 10.629921 2.739703 2.480315 10.629921 2.739703 2.480315 14.881889 0.527689 2.554246 9.699474 0.599736 2.125984 9.881560 0.788086 1.767495 10.053968 1.059091 1.510013 10.215812 1.371091 1.371091 10.366258 1.679558 1.352751 10.504532 1.942569 1.441470 10.629921 2.125984 1.417323 10.629921 2.125984 1.417323 14.881889 0.692992 2.953323 9.699474 1.046764 3.205205 9.881560 1.433437 3.325511 10.053968 1.807134 3.315949 10.215812 2.125984 3.193564 10.366258 2.357072 2.988414 10.504532 2.480315 2.739703 10.629921 2.627084 2.627084 10.629921 2.627084 2.627084 14.881889 0.651741 2.521007 9.881560 0.740890 2.125984 10.053968 0.936020 1.807134 10.215812 1.201433 1.592194 10.366258 1.494642 1.494642 10.504532 1.771654 1.512266 10.629921 1.942569 1.441470 10.629921 1.942569 1.441470 14.881889 0.804214 2.889109 9.881560 1.146574 3.105394 10.053968 1.510013 3.192877 10.215812 1.849674 3.157187 10.366258 2.125984 3.018837 10.504532 2.309399 2.810498 10.629921 2.480315 2.739703 14.881889 2.480315 2.739703 10.629921 0.788086 2.484473 10.053968 0.894042 2.125984 10.215812 1.094782 1.849674 10.366258 1.352751 1.679558 10.504532 1.624885 1.624885 10.629921 1.771654 1.512266 10.629921 1.771654 1.512266 14.881889 0.926457 2.818532 10.053968 1.254870 2.997099 10.215812 1.592194 3.050535 10.366258 1.894897 2.988414 10.504532 2.125984 2.834646 10.629921 2.309399 2.810498 14.881889 2.309399 2.810498 10.629921 0.936020 2.444834 10.215812 1.058405 2.125984 10.366258 1.263555 1.894897 10.504532 1.512266 1.771654 10.629921 1.624885 1.624885 10.629921 1.624885 1.624885 14.881889 1.059091 2.741956 10.215812 1.371091 2.880877 10.366258 1.679558 2.899217 10.504532 1.942569 2.810498 10.629921 2.125984 2.834646 14.881889 2.125984 2.834646 10.629921 1.094782 2.402294 10.366258 1.233131 2.125984 10.504532 1.441470 1.942569 10.629921 1.512266 1.771654 14.881889 1.512266 1.771654 10.629921 1.201433 2.659774 10.366258 1.494642 2.757327 10.504532 1.771654 2.739703 10.629921 1.942569 2.810498 14.881889 1.942569 2.810498 10.629921 1.263555 2.357072 10.504532 1.417323 2.125984 10.629921 1.441470 1.942569 14.881889 1.441470 1.942569 10.629921 1.352751 2.572411 10.504532 1.624885 2.627084 10.629921 1.771654 2.739703 14.881889 1.771654 2.739703 10.629921 1.441470 2.309399 10.629921 1.417323 2.125984 14.881889 1.417323 2.125984 10.629921 1.512266 2.480315 10.629921 1.624885 2.627084 14.881889 1.624885 2.627084 10.629921 1.441470 2.309399 14.881889 1.441470 2.309399 10.629921 1.512266 2.480315 10.629921 1.512266 2.480315 14.881889 "
								            />
							</IndexedFaceSet>
						</Shape>
					</Group>
				</Transform>
			</Transform>
		</Transform>
	</Scene>
</X3D>