<?xml version="1.0" encoding="UTF-8"?>
<!DOCTYPE X3D PUBLIC "ISO//Web3D//DTD X3D 3.0//EN" "http://www.web3d.org/specifications/x3d-3.0.dtd">
<X3D version="3.0" profile="Immersive" xmlns:xsd="http://www.w3.org/2001/XMLSchema-instance" xsd:noNamespaceSchemaLocation="http://www.web3d.org/specifications/x3d-3.0.xsd">
	<head>
		<meta name='copyright' content='Copyright (c) AnyLogic North America 2013'/>
	</head>
	<Scene>
		<NavigationInfo headlight="false"
		                visibilityLimit="0.0"
		                type='"EXAMINE", "ANY"'
		                avatarSize="0.25, 1.75, 0.75"
		                />
		<Background DEF="WO_World"
		            groundColor="0.051 0.051 0.051"
		            skyColor="0.051 0.051 0.051"
		            />
		<Transform 
		           translation="3.5 -3.5 0"
		           scale="0.7 0.7 0.7"
		           rotation="0.000000 0.707107 0.707107 3.141593"
		           >
			<Transform DEF="group_0_001_TRANSFORM"
			           translation="0.000000 -0.000000 8.503937"
			           scale="1.000000 1.000000 1.000000"
			           rotation="-1.000000 0.000000 0.000000 1.570796"
			           >
				<Transform DEF="group_0_001_ifs_TRANSFORM"
				           translation="0.000000 0.000000 -0.000000"
				           scale="1.000000 1.000000 1.000000"
				           rotation="1.000000 0.000000 0.000000 0.000000"
				           >
					<Group DEF="group_ME_ID11">
						<Shape>
							<Appearance>
								<Material DEF="MA_material_2"
								          diffuseColor="0.227 0.298 0.231"
								          specularColor="0.401 0.401 0.401"
								          emissiveColor="0.000 0.000 0.000"
								          ambientIntensity="0.333"
								          shininess="0.098"
								          transparency="0.0"
								          />
							</Appearance>
							<IndexedFaceSet solid="true"
							                creaseAngle="0.5236"
							                coordIndex="0 1 2 -1 1 0 3 -1 3 4 1 -1 4 3 5 -1 6 7 8 -1 7 6 9 -1 9 6 10 -1 9 10 11 -1 11 10 12 -1 11 12 13 -1 13 12 14 -1 13 14 15 -1 15 14 16 -1 15 16 17 -1 17 16 18 -1 17 18 19 -1 19 18 20 -1 19 20 21 -1 21 20 22 -1 21 22 23 -1 23 22 24 -1 23 24 25 -1 25 24 26 -1 25 26 27 -1 27 26 28 -1 27 28 29 -1 0 30 31 -1 30 0 2 -1 5 32 4 -1 32 5 33 -1 34 35 36 -1 35 34 37 -1 36 38 39 -1 38 36 35 -1 39 40 41 -1 40 39 38 -1 40 42 41 -1 42 40 43 -1 43 44 42 -1 44 43 45 -1 45 46 44 -1 46 45 47 -1 47 48 46 -1 48 47 49 -1 49 50 48 -1 50 49 51 -1 51 52 50 -1 52 51 53 -1 54 52 53 -1 52 54 55 -1 56 55 54 -1 55 56 57 -1 58 57 56 -1 57 58 59 -1 60 59 58 -1 59 60 61 -1 31 61 60 -1 61 31 30 -1 33 62 32 -1 62 33 63 -1 63 64 62 -1 64 63 65 -1 65 66 64 -1 66 65 67 -1 66 68 69 -1 68 66 67 -1 69 70 71 -1 70 69 68 -1 71 37 34 -1 37 71 70 -1 "
							                >
								<Coordinate DEF="coords_ME_ID11"
								            point="4.903398 4.903398 10.984252 4.712599 5.049803 9.566929 4.903398 4.903398 9.566929 4.712599 5.049803 10.984252 4.490408 5.141837 9.566929 4.490408 5.141837 10.984252 3.362100 4.013529 9.566929 3.362100 4.490408 9.566929 3.330709 4.251968 9.566929 3.454134 4.712599 9.566929 3.454134 3.791339 9.566929 3.600539 4.903398 9.566929 3.600539 3.600539 9.566929 3.791339 5.049803 9.566929 3.791338 3.454134 9.566929 4.013529 5.141837 9.566929 4.013529 3.362100 9.566929 4.251968 5.173229 9.566929 4.251968 3.330709 9.566929 4.490408 5.141837 9.566929 4.490408 3.362100 9.566929 4.712599 5.049803 9.566929 4.712599 3.454134 9.566929 4.903398 4.903398 9.566929 4.903398 3.600539 9.566929 5.049803 4.712599 9.566929 5.049803 3.791338 9.566929 5.141837 4.490408 9.566929 5.141837 4.013529 9.566929 5.173229 4.251968 9.566929 5.049803 4.712599 9.566929 5.049803 4.712599 10.984252 4.251968 5.173229 9.566929 4.251968 5.173229 10.984252 3.330709 4.251968 9.566929 3.362100 4.013529 10.984252 3.362100 4.013529 9.566929 3.330709 4.251968 10.984252 3.454134 3.791339 10.984252 3.454134 3.791339 9.566929 3.600539 3.600539 10.984252 3.600539 3.600539 9.566929 3.791338 3.454134 9.566929 3.791338 3.454134 10.984252 4.013529 3.362100 9.566929 4.013529 3.362100 10.984252 4.251968 3.330709 9.566929 4.251968 3.330709 10.984252 4.490408 3.362100 9.566929 4.490408 3.362100 10.984252 4.712599 3.454134 9.566929 4.712599 3.454134 10.984252 4.903398 3.600539 9.566929 4.903398 3.600539 10.984252 5.049803 3.791338 10.984252 5.049803 3.791338 9.566929 5.141837 4.013529 10.984252 5.141837 4.013529 9.566929 5.173229 4.251968 10.984252 5.173229 4.251968 9.566929 5.141837 4.490408 10.984252 5.141837 4.490408 9.566929 4.013529 5.141837 9.566929 4.013529 5.141837 10.984252 3.791339 5.049803 9.566929 3.791339 5.049803 10.984252 3.600539 4.903398 9.566929 3.600539 4.903398 10.984252 3.454134 4.712599 10.984252 3.454134 4.712599 9.566929 3.362100 4.490408 10.984252 3.362100 4.490408 9.566929 "
								            />
							</IndexedFaceSet>
						</Shape>
					</Group>
				</Transform>
			</Transform>
			<Transform DEF="group_0_TRANSFORM"
			           translation="0.000000 -0.000000 8.503937"
			           scale="1.000000 1.000000 1.000000"
			           rotation="-1.000000 0.000000 0.000000 1.570796"
			           >
				<Transform DEF="group_0_ifs_TRANSFORM"
				           translation="0.000000 0.000000 -0.000000"
				           scale="1.000000 1.000000 1.000000"
				           rotation="1.000000 0.000000 0.000000 0.000000"
				           >
					<Group DEF="group_ME_ID3">
						<Shape>
							<Appearance>
								<Material USE="MA_material_2" />
							</Appearance>
							<IndexedFaceSet solid="true"
							                creaseAngle="0.5236"
							                coordIndex="0 1 2 -1 1 0 3 -1 3 0 4 -1 3 4 5 -1 6 7 8 -1 7 6 9 -1 7 9 10 -1 10 9 11 -1 10 11 12 -1 12 11 13 -1 12 13 14 -1 14 13 15 -1 15 13 16 -1 15 16 17 -1 15 17 18 -1 18 17 19 -1 18 19 20 -1 20 19 21 -1 21 19 22 -1 21 22 23 -1 21 23 24 -1 24 23 25 -1 24 25 26 -1 26 25 27 -1 26 27 28 -1 28 27 29 -1 2 30 31 -1 30 2 1 -1 32 33 34 -1 33 32 35 -1 36 5 4 -1 5 36 37 -1 34 38 39 -1 38 34 33 -1 40 30 41 -1 30 40 31 -1 42 37 36 -1 37 42 43 -1 44 43 42 -1 43 44 45 -1 44 46 45 -1 46 44 47 -1 47 48 46 -1 48 47 49 -1 49 50 48 -1 50 49 51 -1 51 52 50 -1 52 51 53 -1 53 54 52 -1 54 53 55 -1 55 56 54 -1 56 55 57 -1 56 58 59 -1 58 56 57 -1 59 60 61 -1 60 59 58 -1 61 62 63 -1 62 61 60 -1 63 64 65 -1 64 63 62 -1 65 66 67 -1 66 65 64 -1 67 68 69 -1 68 67 66 -1 68 70 69 -1 70 68 71 -1 71 72 70 -1 72 71 73 -1 73 74 72 -1 74 73 75 -1 75 76 74 -1 76 75 77 -1 77 41 76 -1 41 77 40 -1 78 35 32 -1 35 78 79 -1 80 81 82 -1 81 80 83 -1 38 84 39 -1 84 38 85 -1 86 83 80 -1 83 86 87 -1 88 79 78 -1 79 88 89 -1 85 90 84 -1 90 85 91 -1 91 92 90 -1 92 91 93 -1 93 94 92 -1 94 93 95 -1 95 96 94 -1 96 95 97 -1 97 98 96 -1 98 97 99 -1 100 98 99 -1 98 100 101 -1 102 101 100 -1 101 102 103 -1 104 103 102 -1 103 104 105 -1 106 105 104 -1 105 106 107 -1 108 107 106 -1 107 108 109 -1 110 109 108 -1 109 110 111 -1 112 110 113 -1 110 112 111 -1 114 113 115 -1 113 114 112 -1 116 115 117 -1 115 116 114 -1 118 117 119 -1 117 118 116 -1 120 119 121 -1 119 120 118 -1 120 122 123 -1 122 120 121 -1 123 124 125 -1 124 123 122 -1 125 89 88 -1 89 125 124 -1 82 126 127 -1 126 82 81 -1 128 129 130 -1 129 128 131 -1 129 131 132 -1 132 131 133 -1 133 131 134 -1 133 134 135 -1 135 134 136 -1 136 134 137 -1 136 137 138 -1 138 137 139 -1 138 139 140 -1 140 139 141 -1 140 141 142 -1 142 141 143 -1 142 143 144 -1 144 143 145 -1 145 143 146 -1 145 146 147 -1 147 146 148 -1 147 148 149 -1 149 148 150 -1 149 150 151 -1 151 150 152 -1 152 150 153 -1 132 154 129 -1 154 132 155 -1 154 155 156 -1 156 155 157 -1 156 157 158 -1 156 158 159 -1 159 158 160 -1 159 160 161 -1 161 160 162 -1 161 162 163 -1 163 162 164 -1 163 164 165 -1 163 165 166 -1 166 165 167 -1 166 167 168 -1 168 167 169 -1 168 169 170 -1 170 169 171 -1 170 171 172 -1 172 171 173 -1 172 173 152 -1 172 152 174 -1 174 152 153 -1 174 153 175 -1 176 87 86 -1 87 176 177 -1 178 126 179 -1 126 178 127 -1 180 177 176 -1 177 180 181 -1 182 181 180 -1 181 182 183 -1 182 184 183 -1 184 182 185 -1 185 186 184 -1 186 185 187 -1 187 188 186 -1 188 187 189 -1 189 190 188 -1 190 189 191 -1 191 192 190 -1 192 191 193 -1 193 194 192 -1 194 193 195 -1 194 196 197 -1 196 194 195 -1 197 198 199 -1 198 197 196 -1 199 200 201 -1 200 199 198 -1 201 202 203 -1 202 201 200 -1 203 204 205 -1 204 203 202 -1 205 206 207 -1 206 205 204 -1 206 208 207 -1 208 206 209 -1 209 210 208 -1 210 209 211 -1 211 212 210 -1 212 211 213 -1 213 214 212 -1 214 213 215 -1 215 179 214 -1 179 215 178 -1 "
							                >
								<Coordinate DEF="coords_ME_ID3"
								            point="0.144882 3.151478 7.577454 0.569656 2.125984 0.000000 0.569656 2.125984 7.577454 0.144882 3.151478 0.000000 0.000000 4.251968 7.577454 0.000000 4.251968 0.000000 0.144882 5.352459 0.000000 0.144882 3.151478 0.000000 0.000000 4.251968 0.000000 0.569656 6.377953 0.000000 0.569656 2.125984 0.000000 1.245373 7.258564 0.000000 1.245373 1.245373 0.000000 2.125984 7.934281 0.000000 2.125984 0.569656 0.000000 3.151478 0.144882 0.000000 3.151478 8.359055 0.000000 4.251968 8.503937 0.000000 4.251968 0.000000 0.000000 5.352459 8.359055 0.000000 5.352459 0.144882 0.000000 6.377953 0.569656 0.000000 6.377953 7.934281 0.000000 7.258564 7.258564 0.000000 7.258564 1.245373 0.000000 7.934281 6.377953 0.000000 7.934281 2.125984 0.000000 8.359055 5.352459 0.000000 8.359055 3.151478 0.000000 8.503937 4.251968 0.000000 1.245373 1.245373 0.000000 1.245373 1.245373 7.577454 0.569656 2.125984 7.577454 3.225197 3.976846 9.566929 0.144882 3.151478 7.577454 3.331390 3.720473 9.566929 0.144882 5.352459 7.577454 0.144882 5.352459 0.000000 3.188977 4.251968 9.566929 0.000000 4.251968 7.577454 2.125984 0.569656 7.577454 2.125984 0.569656 0.000000 0.569656 6.377953 7.577454 0.569656 6.377953 0.000000 1.245373 7.258564 7.577454 1.245373 7.258564 0.000000 2.125984 7.934281 0.000000 2.125984 7.934281 7.577454 3.151478 8.359055 0.000000 3.151478 8.359055 7.577454 4.251968 8.503937 0.000000 4.251968 8.503937 7.577454 5.352459 8.359055 0.000000 5.352459 8.359055 7.577454 6.377953 7.934281 0.000000 6.377953 7.934281 7.577454 7.258564 7.258564 0.000000 7.258564 7.258564 7.577454 7.934281 6.377953 7.577454 7.934281 6.377953 0.000000 8.359055 5.352459 7.577454 8.359055 5.352459 0.000000 8.503937 4.251968 7.577454 8.503937 4.251968 0.000000 8.359055 3.151478 7.577454 8.359055 3.151478 0.000000 7.934281 2.125984 7.577454 7.934281 2.125984 0.000000 7.258564 1.245373 7.577454 7.258564 1.245373 0.000000 6.377953 0.569656 0.000000 6.377953 0.569656 7.577454 5.352459 0.144882 0.000000 5.352459 0.144882 7.577454 4.251968 0.000000 0.000000 4.251968 0.000000 7.577454 3.151478 0.144882 0.000000 3.151478 0.144882 7.577454 1.245373 1.245373 7.577454 3.500320 3.500320 9.566929 3.225197 3.976846 10.984252 3.331390 3.720473 9.566929 3.331390 3.720473 10.984252 3.225197 3.976846 9.566929 0.144882 5.352459 7.577454 3.225197 4.527091 9.566929 3.188977 4.251968 10.984252 3.188977 4.251968 9.566929 2.125984 0.569656 7.577454 3.720473 3.331390 9.566929 0.569656 6.377953 7.577454 3.331390 4.783464 9.566929 1.245373 7.258564 7.577454 3.500320 5.003618 9.566929 2.125984 7.934281 7.577454 3.720473 5.172547 9.566929 3.151478 8.359055 7.577454 3.976846 5.278740 9.566929 4.251968 8.503937 7.577454 4.251968 5.314961 9.566929 4.527091 5.278740 9.566929 5.352459 8.359055 7.577454 4.783464 5.172547 9.566929 6.377953 7.934281 7.577454 5.003618 5.003618 9.566929 7.258564 7.258564 7.577454 5.172547 4.783464 9.566929 7.934281 6.377953 7.577454 5.278740 4.527091 9.566929 8.359055 5.352459 7.577454 5.314961 4.251968 9.566929 8.503937 4.251968 7.577454 8.359055 3.151478 7.577454 5.278740 3.976846 9.566929 7.934281 2.125984 7.577454 5.172547 3.720473 9.566929 7.258564 1.245373 7.577454 5.003618 3.500320 9.566929 6.377953 0.569656 7.577454 4.783464 3.331390 9.566929 5.352459 0.144882 7.577454 4.527091 3.225197 9.566929 4.251968 3.188977 9.566929 4.251968 0.000000 7.577454 3.976846 3.225197 9.566929 3.151478 0.144882 7.577454 3.500320 3.500320 9.566929 3.500320 3.500320 10.984252 3.225197 3.976846 10.984252 3.225197 4.527091 10.984252 3.188977 4.251968 10.984252 3.331390 3.720473 10.984252 3.330709 4.251968 10.984252 3.362100 4.013529 10.984252 3.500320 3.500320 10.984252 3.454134 3.791339 10.984252 3.600539 3.600539 10.984252 3.720473 3.331390 10.984252 3.791338 3.454134 10.984252 3.976846 3.225197 10.984252 4.013529 3.362100 10.984252 4.251968 3.188977 10.984252 4.251968 3.330709 10.984252 4.527091 3.225197 10.984252 4.490408 3.362100 10.984252 4.712599 3.454134 10.984252 4.783464 3.331390 10.984252 4.903398 3.600539 10.984252 5.003618 3.500320 10.984252 5.049803 3.791338 10.984252 5.172547 3.720473 10.984252 5.141837 4.013529 10.984252 5.173229 4.251968 10.984252 5.278740 3.976846 10.984252 3.331390 4.783464 10.984252 3.362100 4.490408 10.984252 3.500320 5.003618 10.984252 3.454134 4.712599 10.984252 3.600539 4.903398 10.984252 3.720473 5.172547 10.984252 3.791339 5.049803 10.984252 3.976846 5.278740 10.984252 4.013529 5.141837 10.984252 4.251968 5.314961 10.984252 4.251968 5.173229 10.984252 4.490408 5.141837 10.984252 4.527091 5.278740 10.984252 4.712599 5.049803 10.984252 4.783464 5.172547 10.984252 4.903398 4.903398 10.984252 5.003618 5.003618 10.984252 5.049803 4.712599 10.984252 5.172547 4.783464 10.984252 5.141837 4.490408 10.984252 5.278740 4.527091 10.984252 5.314961 4.251968 10.984252 3.225197 4.527091 10.984252 3.225197 4.527091 9.566929 3.720473 3.331390 10.984252 3.720473 3.331390 9.566929 3.331390 4.783464 10.984252 3.331390 4.783464 9.566929 3.500320 5.003618 10.984252 3.500320 5.003618 9.566929 3.720473 5.172547 9.566929 3.720473 5.172547 10.984252 3.976846 5.278740 9.566929 3.976846 5.278740 10.984252 4.251968 5.314961 9.566929 4.251968 5.314961 10.984252 4.527091 5.278740 9.566929 4.527091 5.278740 10.984252 4.783464 5.172547 9.566929 4.783464 5.172547 10.984252 5.003618 5.003618 9.566929 5.003618 5.003618 10.984252 5.172547 4.783464 10.984252 5.172547 4.783464 9.566929 5.278740 4.527091 10.984252 5.278740 4.527091 9.566929 5.314961 4.251968 10.984252 5.314961 4.251968 9.566929 5.278740 3.976846 10.984252 5.278740 3.976846 9.566929 5.172547 3.720473 10.984252 5.172547 3.720473 9.566929 5.003618 3.500320 10.984252 5.003618 3.500320 9.566929 4.783464 3.331390 9.566929 4.783464 3.331390 10.984252 4.527091 3.225197 9.566929 4.527091 3.225197 10.984252 4.251968 3.188977 9.566929 4.251968 3.188977 10.984252 3.976846 3.225197 9.566929 3.976846 3.225197 10.984252 "
								            />
							</IndexedFaceSet>
						</Shape>
					</Group>
				</Transform>
			</Transform>
		</Transform>
	</Scene>
</X3D>